{
  "rules": {
    ".read": true,
    ".write": true,
    "exercise": {
      "id":{
        "$exId":{
          "name":{
            ".indexOn": ".value"
          }
        }
      }
    },
    "sessions":{
      "$user":{
        ".indexOn":"tobeDoneDate"
      },
      "usernames":{
        ".indexOn": ".value"
      }
    }
  }
}
